// Jest Snapshot v1, https://goo.gl/fbAQLP

exports[`render 1`] = `
.c0 {
  display: -webkit-box;
  display: -webkit-flex;
  display: -ms-flexbox;
  display: flex;
  height: 100%;
}

.c0 .left-column {
  width: 200px;
  border-right: 1px solid #e3e3e3;
}

.c0 .right-column {
  width: 100%;
  display: -webkit-box;
  display: -webkit-flex;
  display: -ms-flexbox;
  display: flex;
  -webkit-flex-direction: column;
  -ms-flex-direction: column;
  flex-direction: column;
}

.c0 .top-bar {
  box-shadow: 0 1px 0 0 #e3e3e3;
}

.c0 .content-area {
  padding: 30px;
}

<div
  class="c0"
>
  <div
    class="left-column"
  >
    <div>
      sidebar
    </div>
  </div>
  <div
    class="right-column"
  >
    <div
      class="top-bar"
    >
      <div>
        topbar
      </div>
    </div>
    <div
      class="content-area"
    >
      <div>
        children
      </div>
    </div>
  </div>
</div>
`;
