// Jest Snapshot v1, https://goo.gl/fbAQLP

exports[`render 1`] = `
.c0 {
  text-align: center;
  padding: 20px;
  display: -webkit-box;
  display: -webkit-flex;
  display: -ms-flexbox;
  display: flex;
  -webkit-box-pack: center;
  -webkit-justify-content: center;
  -ms-flex-pack: center;
  justify-content: center;
}

.c0 a {
  -webkit-text-decoration: none;
  text-decoration: none;
  color: #42424b;
  display: -webkit-box;
  display: -webkit-flex;
  display: -ms-flexbox;
  display: flex;
}

.c0 img {
  margin-right: 10px;
}

<div
  class="c0"
>
  <a
    aria-current="page"
    class="active"
    href="/"
  >
    <img
      alt="black logo mascot"
      src="logo-black.svg"
    />
    <h4>
      HWSC
    </h4>
  </a>
</div>
`;
